^F:\SMARTRO\DEVELOPMENT\EMULADOR\SRC\PLUGINS\CONSOLE.C
C:\WINDOWS\GLOBALIZATION\SORTING\SORTDEFAULT.NLS
C:\PROGRAM FILES (X86)\MICROSOFT VISUAL STUDIO\2017\PROFESSIONAL\VC\TOOLS\MSVC\14.11.25503\BIN\HOSTX86\X86\1046\CLUI.DLL
