^F:\SMARTRO\DEVELOPMENT\EMULADOR\VCPROJ-10\COMMON_SQL\DEBUG\SQL.OBJ
C:\WINDOWS\GLOBALIZATION\SORTING\SORTDEFAULT.NLS
F:\SMARTRO\DEVELOPMENT\EMULADOR\3RDPARTY\MYSQL\WIN32\LIB\LIBMYSQL.LIB
C:\WINDOWS\SYSTEM32\TZRES.DLL
F:\SMARTRO\DEVELOPMENT\EMULADOR\VCPROJ-10\COMMON_SQL\DEBUG\SQL.OBJ
