//Homunculus LvUp experience value table
50
110
180
260
350
630
950
1310
1710
2150
3180
4300
5510
6810
8200
10800
13560
16480
19560
22800
28090
33630
39420
45460
51750
61500
70910
81030
91510
102350
117580
133300
149510
166210
183400
206480
230200
254560
279560
305200
338450
372510
407380
443060
479550
525590
572630
620670
669710
719750
781500
844460
908630
974010
1121280
1203400
1286960
1371960
1458400
1561530
1666350
1772860
1881060
1990950
2120350
2251710
2385030
2520310
2657550
2817340
2979380
3143670
3310210
3479000
3673600
3870760
4070480
4272760
4477600
4711730
4948750
5188660
5431460
5677150
5955830
6237750
6522910
6811310
7102950
7431500
7763660
8099430
8438810
8781800
9165840
9553880
9945920
10458427
11380262
12336168
13326144
14994907
16130400
17304200
18516326
19766760
21085096
22473939
23935933
25473761
27090141
28787825
30569594
32438257
34396650
36447628
38594068
40838862
43184915
45635142
48192464
50859807
53640095
56536248
59551182
62687799
65948990
69337627
72856561
76508620
80296602
84223275
88291372
92503586
96862571
101370933
106031232
110845975
115817614
120948544
126241098
131697545
137320088
143110859
149071919
155205253
161512770
167996297
174657580
181498280
188519973
195724146
203112195
210685425
218445048
226392181
234527844
242852961
251368358
260074760
268972793
278062983
287345754
296821429
306490229
316352273
326407578
336656059
347097530
357731703
368558190
379576502
390786051
402186149
413776012
425554759
437521412
449674899
462014055
474537623
487244256
500132518
513200886
526447751
539871420
553470119
567241993
581185110
595297462
609576966
624021468
638628745
653396504
668322389
683403980
698638797
714024301
729557897
745236936
761058717
777020492
793119465
809352795
825717601
842210961
858829917
875571475
892432609
909410264
926501355
943702774
961011389
978424047
995937576
1013548788
1031254481
1049051440
1066936441
1084906252
1102957634
1121087346
1139292145
1157568786
1175914029
1194324635
1212797373
1231329018
1249916355
1268556179
1287245299
1305980536
1324758729
1343576732
1362431419
1381319683
1400238439
1419184625
1438155202
1457147157
1476157502
1495183278
1514221554
1533269429
1552324031
1571382520
1590442090
1609499966
1628553409
1647599713
1666636209
1685660263
1704669278
1723660695
1742631992
0