// Monsters Additional Database
//
// Structure of Database :
// ID,Sprite_Name,kROName,iROName,LV,HP,SP,EXP,JEXP,Range1,ATK1,ATK2,DEF,MDEF,STR,AGI,VIT,INT,DEX,LUK,Range2,Range3,Scale,Race,Element,Mode,Speed,aDelay,aMotion,dMotion,MEXP,ExpPer,MVP1id,MVP1per,MVP2id,MVP2per,MVP3id,MVP3per,Drop1id,Drop1per,Drop2id,Drop2per,Drop3id,Drop3per,Drop4id,Drop4per,Drop5id,Drop5per,Drop6id,Drop6per,Drop7id,Drop7per,Drop8id,Drop8per,Drop9id,Drop9per,DropCardid,DropCardper

// Easter Event Monsters
//1920,EASTER_EGG,Easter Egg,Easter Egg,3,300,0,4,4,0,1,2,20,20,1,1,1,1,1,20,10,12,0,0,60,128,1000,1001,1,1,0,0,0,0,0,0,0,0,1010,250,935,500,558,300,501,200,501,200,713,800,558,300,558,300,0,0,0,0
//1921,EASTER_BUNNY,Easter Bunny,Easter Bunny,6,1800,0,60,55,1,20,26,0,40,1,36,6,1,11,80,10,10,0,2,60,181,200,1456,456,336,0,0,0,0,0,0,0,0,2250,200,515,8000,727,1200,746,1500,706,30,622,50,534,5000,0,0,0,0,4006,70

// eAthena Dev Team
//1900,VALARIS,Valaris,Valaris,99,668000,0,107250,37895,2,3220,4040,35,45,1,152,96,85,120,95,10,10,2,6,67,1973,100,1068,768,576,13000,5000,608,1000,750,400,923,3800,1466,200,2256,200,2607,800,714,500,617,3000,984,4300,985,5600,0,0,0,0,4147,1
//1901,VALARIS_WORSHIPPER,Valaris's Worshipper,Valaris's Worshipper,50,8578,0,2706,1480,1,487,590,15,25,1,75,55,1,93,45,10,12,0,6,27,1685,100,868,480,120,0,0,0,0,0,0,0,0,923,500,984,63,1464,2,607,50,610,100,503,300,2405,50,0,0,0,0,4129,1
//1902,MC_CAMERI,MC Cameri,MC Cameri,99,668000,0,107250,37895,2,3220,4040,35,45,1,152,96,85,120,95,10,10,2,6,67,1973,100,1068,768,576,13000,5000,608,1000,750,400,923,3800,1466,200,2256,200,2607,800,714,500,617,3000,984,4300,985,5600,0,0,0,0,4147,1
//1903,POKI,Poki#3,Poki#3,99,1349000,0,4093000,1526000,9,4892,9113,22,35,1,180,39,67,193,130,10,12,1,7,64,1973,120,500,672,480,92100,7000,603,5500,617,3000,1723,1000,1228,100,1236,500,617,2500,1234,75,1237,125,1722,250,1724,100,1720,50,0,0,0,0
//1904,SENTRY,Sentry,Sentry,99,668000,0,107250,37895,2,3220,4040,35,45,1,152,96,85,120,95,10,10,2,6,67,1973,100,1068,768,576,13000,5000,608,1000,750,400,923,3800,1466,200,2256,200,2607,800,714,500,617,3000,984,4300,985,5600,0,0,0,0,4147,1

//Custom Hollow Poring (overrrides/collides with META_ANDRE)
1237,HOLLOW_PORING,Hollow Poring,Hollow Poring,1,50,0,2,1,1,7,10,0,5,1,1,1,0,6,30,10,12,1,3,21,0x83,400,1872,672,480,0,0,0,0,0,0,0,0,909,7000,1202,100,938,400,512,1000,713,1500,512,150,619,20,0,0,0,0,4001,10
//Custom Fire Poring. Warning, Colides with META_DENIRO
1239,FIRE_PORING,Fire Poring,Fire Poring,1,50,0,2,1,1,7,10,0,5,1,1,1,1,6,30,10,12,1,3,21,131,400,1872,672,480,0,0,0,0,0,0,0,0,909,7000,1202,100,938,400,512,1000,713,1500,741,5,619,20,0,0,0,0,4001,20

//Lunar New Year 2008 Event Monster overrides
//Uncomment if event is enabled, as these drops modifications are nessecary.
1145,MARTIN,Martin,Martin,18,1109,0,134,86,1,52,63,0,5,12,18,30,15,15,5,10,12,0,2,42,0x81,300,1480,480,480,0,0,0,0,0,0,0,0,1017,9000,1018,500,1251,10,2225,5,5009,1,10010,10,2224,15,7869,1500,0,0,4046,1
//1175,TAROU,Tarou,Tarou,11,284,0,57,28,1,34,45,0,0,1,20,11,10,24,5,10,12,0,2,27,0x91,150,1744,1044,684,0,0,0,0,0,0,0,0,1016,9000,919,3000,949,800,528,1000,701,2,7869,2500,0,0,0,0,0,0,4028,1
1209,CRAMP,Cramp,Cramp,56,4720,0,2300,1513,1,395,465,0,5,1,85,35,5,65,60,10,12,0,2,45,0x3095,100,1000,500,1000,0,0,0,0,0,0,0,0,7007,4656,528,1000,726,80,746,110,568,250,510,70,984,95,7869,1500,0,0,4296,1

//iRO St. Patricks Day 2008 Event Monster overrides
//Uncomment if event is enabled, as these drops modifications are nessecary.
1841,G_SNAKE_,Snake Lord's Minon,Snake Lord's Minon,15,471,0,72,48,1,46,55,0,0,1,15,15,10,35,5,10,12,1,2,22,0x81,200,1576,576,576,0,0,0,0,0,0,0,0,7915,1000,7916,100,7720,30,12715,7,0,0,0,0,0,0,0,0,0,0,0,0
//1842,G_ANACONDAQ_,Snake Lord's Minon,Snake Lord's Minon,23,1109,0,300,149,1,124,157,0,0,1,23,28,10,36,5,10,12,1,2,25,0x91,200,1576,576,576,0,0,0,0,0,0,0,0,7915,1000,7916,100,7720,30,12715,7,0,0,0,0,0,0,0,0,0,0,0,0
1843,SIDE_WINDER_,Snake Lord's Minon,Snake Lord's Minon,43,4929,0,1996,993,1,240,320,5,10,38,43,40,15,115,20,10,12,1,2,25,0x3095,200,1576,576,576,0,0,0,0,0,0,0,0,7915,1000,7916,100,7720,30,12715,7,0,0,0,0,0,0,0,0,0,0,0,0
1844,G_ISIS_,Snake Lord's Minon,Snake Lord's Minon,47,7003,0,3709,1550,1,423,507,10,35,38,65,43,50,66,15,10,12,2,6,27,0x3195,200,1384,768,336,0,0,0,0,0,0,0,0,7915,1000,7916,100,7720,30,12715,8,0,0,0,0,0,0,0,0,0,0,0,0

//iRO Christmas 2008 Event
//Uncomment if event is enabled, as these drops modifications are nessecary.
1244,JAKK_XMAS,Christmas Jakk,Christmas Jakk,38,3581,0,1113,688,1,315,382,5,30,1,38,38,43,75,45,10,12,1,0,43,0x81,200,1180,480,648,0,0,0,0,0,0,0,0,529,1000,530,1000,14546,1000,14550,1000,7174,1000,7175,1000,6092,1000,12355,1250,0,0,0,0
1245,GOBLINE_XMAS,Christmas Goblin,Christmas Goblin,25,1176,0,282,171,1,118,140,10,5,1,53,25,20,38,45,10,12,1,7,24,0x81,100,1120,620,240,0,0,0,0,0,0,0,0,529,1000,530,1000,14546,1000,14550,1000,7174,1000,7175,1000,6092,1000,12355,1250,0,0,0,0
//1246,COOKIE_XMAS,Christmas Cookie,Christmas Cookie,28,2090,0,461,284,1,140,170,0,50,1,24,30,53,45,100,10,12,0,7,46,0x91,400,1248,1248,240,0,0,0,0,0,0,0,0,529,1000,530,1000,14546,1000,14550,1000,7174,1000,7175,1000,6092,1000,12355,1250,0,0,0,0
1247,ANTONIO,Antonio,Antonio,10,10,0,3,2,1,13,20,100,0,1,1,1,50,100,100,10,12,1,3,66,0xC1,100,720,720,432,0,0,0,0,0,0,0,0,604,500,12354,500,14550,500,5136,500,12132,500,12225,500,5811,500,0,0,0,0,4243,1

//iRO Halloween 2009 Event
//Uncomment if event is enabled. Uncomment the skills for Halloween Whisper in mob_skill_db2.
//3014,HALLOWEEN_WHISPER,Halloween Whisper,Halloween Whisper,1,800,0,0,0,1,10,13,0,45,1,51,14,0,60,0,10,12,0,6,68,0x81,150,1960,960,504,0,0,0,0,0,0,0,0,12396,150,6299,5335,0,0,0,0,0,0,0,0,0,0,0,0,0,0,0,0
//3015,HALLOWEEN_DARK_LORD,Halloween Dark Lord,Halloween Dark Lord,1,45,0,0,0,1,10,13,0,45,1,51,14,0,60,0,10,12,2,6,89,0x81,100,868,768,480,0,0,0,0,0,0,0,0,12396,800,12397,5335,0,0,0,0,0,0,0,0,0,0,0,0,0,0,0,0

//iRO Halloween 2008 Event
//Uncomment if event is enabled.
//3000,ZOMBIE,Zombie,Zombie,15,534,0,50,33,1,67,79,0,10,1,8,7,0,15,0,10,12,1,1,29,0x3885,400,2612,912,288,0,0,0,0,0,0,0,0,957,9000,724,5,938,1000,958,50,727,70,0,0,0,0,0,0,0,0,4038,1
3001,GHOUL,Ghoul,Ghoul,40,5418,0,1088,622,1,420,500,5,20,1,20,29,0,45,20,10,12,1,1,49,0x3885,250,2456,912,504,0,0,0,0,0,0,0,0,958,6000,756,110,509,700,511,800,2609,60,934,150,1260,1,0,0,0,0,4110,1
//3002,ZOMBIE_MASTER,Zombie Master,Zombie Master,62,14211,0,7610,2826,1,824,1084,37,26,25,20,30,5,77,35,10,12,1,1,29,0x3695,175,2612,912,288,0,0,0,0,0,0,0,0,7071,4413,938,1500,958,1500,723,200,727,100,1260,1,2324,2,0,0,0,0,4274,1

2011,S_EMPEL_1,Support Crystal,Support Crystal,99,20,50000,0,0,3, 1,2,100,99, 0,0,0,90,20,0,10,12,1,0,26,0x40,2000,1308,1008,480,0,0,0,0,0,0,0,0,0,0,0,0,0,0,0,0,0,0,0,0,0,0,0,0,0,0,0,0
2012,LEAF_CAT,Shiro,Shiro,1,25,50000,2000,2000,1,266,307,5,19,25,67,12,45,60,29,10,12,0,2,22,0xF1,150,960,864,720,0,0,0,0,0,0,0,0,7919,28,5097,7,12709,1500,14525,430,14564,285,14549,714,12130,714,12106,14,0,0,0,0

// Tierra Bossnia
2100,RSX_0806,RSX 0806,RSX-0806,86,500000,0,0,0,1,2740,5620,39,41,85,51,30,25,93,84,10,12,2,0,60,0x37B5,300,128,1104,240,0,0,0,0,0,0,0,0,0,0,0,0,0,0,0,0,0,0,0,0,0,0,0,0,0,0,0,0
2101,GLOOMUNDERNIGHT,Gloom Under Night,Gloom Under Night,89,500000,0,0,0,3,5880,9516,10,20,100,115,98,78,111,50,10,12,2,0,68,0x37B5,300,1344,2880,576,0,0,0,0,0,0,0,0,0,0,0,0,0,0,0,0,0,0,0,0,0,0,0,0,0,0,0,0
2102,RANDGRIS,Valkyrie Randgris,Valkyrie Randgris,99,500000,0,0,0,3,5560,9980,25,42,100,120,30,120,220,210,10,12,2,8,86,0x37B5,300,576,576,480,0,0,0,0,0,0,0,0,0,0,0,0,0,0,0,0,0,0,0,0,0,0,0,0,0,0,0,0
2103,GARM,Garm,Garm,73,500000,0,0,0,3,1700,1900,40,45,85,126,82,65,95,60,10,12,2,2,81,0x37B5,400,608,408,336,0,0,0,0,0,0,0,0,0,0,0,0,0,0,0,0,0,0,0,0,0,0,0,0,0,0,0,0
2104,MOROCC,Satan Morroc,Satan Morroc,99,500000,0,0,0,2,32000,32001,29,65,140,160,30,250,180,50,10,12,2,6,87,0x37B5,300,76,540,432,0,0,0,0,0,0,0,0,0,0,0,0,0,0,0,0,0,0,0,0,0,0,0,0,0,0,0,0

// Conquest Battleground
2105,S_EMPEL_1,Guardian Stone,Guardian Stone,90,200,0,0,0,0,1,1,100,99,1,1,1,1,1,1,0,0,2,0,20,0x160,300,1288,288,384,0,0,0,0,0,0,0,0,0,0,0,0,0,0,0,0,0,0,0,0,0,0,0,0,0,0,0,0
2106,S_EMPEL_2,Guardian Stone,Guardian Stone,90,200,0,0,0,0,1,1,100,99,1,1,1,1,1,1,0,0,2,0,20,0x160,300,1288,288,384,0,0,0,0,0,0,0,0,0,0,0,0,0,0,0,0,0,0,0,0,0,0,0,0,0,0,0,0
2107,EMPELIUM,Emperium,Emperium,90,100,0,0,0,0,1,1,100,99,1,1,1,1,1,1,0,0,2,0,20,0x160,300,1288,288,384,0,0,0,0,0,0,0,0,0,0,0,0,0,0,0,0,0,0,0,0,0,0,0,0,0,0,0,0

2813,EMPERIUM,Emperium,Emperium,90,9000000,0,0,0,1,60,71,40,50,1,17,80,50,26,20,10,12,0,8,26,0x120,300,1288,288,384,0,0,0,0,0,0,0,0,0,0,0,0,0,0,0,0,0,0,0,0,0,0,0,0,0,0,0,0

// MvP da Devil Square -> Editado para o StoryRO

3000,kamimoon,Deusa da Lua,Deusa da Lua,99,65200000,0,3154321,3114520,3,130000,195535,80,80,120,180,25,190,199,50,10,12,2,6,87,0xBFB5,130,212,384,360,1577160,10000,0,0,0,0,0,0,21038,100,21037,100,21036,100,21035,100,0,0,0,0,21042,1000,12103,1000,0,0,0,0

1585,MIMI_MONKEY,Mine Monkey,Mine Monkey,300,65200000,0,3154321,3114520,3,130000,195535,80,80,30000,180,25,10000,199,50,10,12,2,0,83,0x37B5,170,212,384,360,1577160,10000,0,0,0,0,0,0,0,0,0,0,0,0,0,0,0,0,0,0,0,0,0,0,0,0,0,0

// ======================================//
// SEASON II -  Custom Mobs SMARTRO     //
//=====================================//
3001,Blazing_Imp,Blazing Imp,Blazing Imp,64,7099,0,3990,4390,1,410,760,0,45,1,85,25,99,70,46,10,12,1,6,83,0x3985,150,700,700,500,0,0,0,0,0,0,0,0,994,30,1003,150,7097,3000,690,100,757,1000,716,300,970,5,0,0,0,0,0,0
3002,abyss_boss,Abyss Boss,Abyss Boss,64,7099,0,3990,4390,1,410,760,0,45,1,85,25,99,70,46,10,12,1,6,83,0x3985,150,700,700,500,0,0,0,0,0,0,0,0,994,30,1003,150,7097,3000,690,100,757,1000,716,300,970,5,0,0,0,0,0,0
3003,almaosce,almaosce,almaosce,64,7099,0,3990,4390,1,410,760,0,45,1,85,25,99,70,46,10,12,1,6,83,0x3985,150,700,700,500,0,0,0,0,0,0,0,0,994,30,1003,150,7097,3000,690,100,757,1000,716,300,970,5,0,0,0,0,0,0
3004,Blue_Insectivore_Slime,Blue_Insectivore_Slime,Blue_Insectivore_Slime,64,7099,0,3990,4390,1,410,760,0,45,1,85,25,99,70,46,10,12,1,6,83,0x3985,150,700,700,500,0,0,0,0,0,0,0,0,994,30,1003,150,7097,3000,690,100,757,1000,716,300,970,5,0,0,0,0,0,0
3005,Yellow_Insectivore_Slime,Yellow_Insectivore_Slime,Yellow_Insectivore_Slime,64,7099,0,3990,4390,1,410,760,0,45,1,85,25,99,70,46,10,12,1,6,83,0x3985,150,700,700,500,0,0,0,0,0,0,0,0,994,30,1003,150,7097,3000,690,100,757,1000,716,300,970,5,0,0,0,0,0,0
3006,Butterfly_Wings,Butterfly_Wings,Butterfly_Wings,64,7099,0,3990,4390,1,410,760,0,45,1,85,25,99,70,46,10,12,1,6,83,0x3985,150,700,700,500,0,0,0,0,0,0,0,0,994,30,1003,150,7097,3000,690,100,757,1000,716,300,970,5,0,0,0,0,0,0
3007,cd,cd,cd,64,7099,0,3990,4390,1,410,760,0,45,1,85,25,99,70,46,10,12,1,6,83,0x3985,150,700,700,500,0,0,0,0,0,0,0,0,994,30,1003,150,7097,3000,690,100,757,1000,716,300,970,5,0,0,0,0,0,0
3008,Doram,Doram,Doram,64,7099,0,3990,4390,1,410,760,0,45,1,85,25,99,70,46,10,12,1,6,83,0x3985,150,700,700,500,0,0,0,0,0,0,0,0,994,30,1003,150,7097,3000,690,100,757,1000,716,300,970,5,0,0,0,0,0,0
3009,EmissionBat,EmissionBat,EmissionBat,64,7099,0,3990,4390,1,410,760,0,45,1,85,25,99,70,46,10,12,1,6,83,0x3985,150,700,700,500,0,0,0,0,0,0,0,0,994,30,1003,150,7097,3000,690,100,757,1000,716,300,970,5,0,0,0,0,0,0
3010,Eye_of_Time,Eye_of_Time,Eye_of_Time,64,7099,0,3990,4390,1,410,760,0,45,1,85,25,99,70,46,10,12,1,6,83,0x3985,150,700,700,500,0,0,0,0,0,0,0,0,994,30,1003,150,7097,3000,690,100,757,1000,716,300,970,5,0,0,0,0,0,0
3011,fahrros,fahrros,fahrros,64,7099,0,3990,4390,1,410,760,0,45,1,85,25,99,70,46,10,12,1,6,83,0x3985,150,700,700,500,0,0,0,0,0,0,0,0,994,30,1003,150,7097,3000,690,100,757,1000,716,300,970,5,0,0,0,0,0,0
3012,Flying_Mote,Flying_Mote,Flying_Mote,64,7099,0,3990,4390,1,410,760,0,45,1,85,25,99,70,46,10,12,1,6,83,0x3985,150,700,700,500,0,0,0,0,0,0,0,0,994,30,1003,150,7097,3000,690,100,757,1000,716,300,970,5,0,0,0,0,0,0
3013,Frozen_Rose,Frozen_Rose,Frozen_Rose,64,7099,0,3990,4390,1,410,760,0,45,1,85,25,99,70,46,10,12,1,6,83,0x3985,150,700,700,500,0,0,0,0,0,0,0,0,994,30,1003,150,7097,3000,690,100,757,1000,716,300,970,5,0,0,0,0,0,0
3014,HARMOR,HARMOR,HARMOR,64,7099,0,3990,4390,1,410,760,0,45,1,85,25,99,70,46,10,12,1,6,83,0x3985,150,700,700,500,0,0,0,0,0,0,0,0,994,30,1003,150,7097,3000,690,100,757,1000,716,300,970,5,0,0,0,0,0,0
3015,HAZ_SPPO,HAZ_SPPO,HAZ_SPPO,64,7099,0,3990,4390,1,410,760,0,45,1,85,25,99,70,46,10,12,1,6,83,0x3985,150,700,700,500,0,0,0,0,0,0,0,0,994,30,1003,150,7097,3000,690,100,757,1000,716,300,970,5,0,0,0,0,0,0
3016,LIGHTNINGGUARD,LIGHTNINGGUARD,LIGHTNINGGUARD,64,7099,0,3990,4390,1,410,760,0,45,1,85,25,99,70,46,10,12,1,6,83,0x3985,150,700,700,500,0,0,0,0,0,0,0,0,994,30,1003,150,7097,3000,690,100,757,1000,716,300,970,5,0,0,0,0,0,0
3017,mano,mano,mano,64,7099,0,3990,4390,1,410,760,0,45,1,85,25,99,70,46,10,12,1,6,83,0x3985,150,700,700,500,0,0,0,0,0,0,0,0,994,30,1003,150,7097,3000,690,100,757,1000,716,300,970,5,0,0,0,0,0,0
3018,MKN_WTRAININGD,CMKN_WTRAININGD,MKN_WTRAININGD,64,7099,0,3990,4390,1,410,760,0,45,1,85,25,99,70,46,10,12,1,6,83,0x3985,150,700,700,500,0,0,0,0,0,0,0,0,994,30,1003,150,7097,3000,690,100,757,1000,716,300,970,5,0,0,0,0,0,0
3019,Mote,Mote,Mote,64,7099,0,3990,4390,1,410,760,0,45,1,85,25,99,70,46,10,12,1,6,83,0x3985,150,700,700,500,0,0,0,0,0,0,0,0,994,30,1003,150,7097,3000,690,100,757,1000,716,300,970,5,0,0,0,0,0,0
3020,Nightmare_Golem,Nightmare_Golem,Nightmare_Golem,64,7099,0,3990,4390,1,410,760,0,45,1,85,25,99,70,46,10,12,1,6,83,0x3985,150,700,700,500,0,0,0,0,0,0,0,0,994,30,1003,150,7097,3000,690,100,757,1000,716,300,970,5,0,0,0,0,0,0
3021,Nightmare_Mushroom,Nightmare_Mushroom,Nightmare_Mushroom,64,7099,0,3990,4390,1,410,760,0,45,1,85,25,99,70,46,10,12,1,6,83,0x3985,150,700,700,500,0,0,0,0,0,0,0,0,994,30,1003,150,7097,3000,690,100,757,1000,716,300,970,5,0,0,0,0,0,0
3022,Papercraft_Horror,Papercraft_Horror,Papercraft_Horror,64,7099,0,3990,4390,1,410,760,0,45,1,85,25,99,70,46,10,12,1,6,83,0x3985,150,700,700,500,0,0,0,0,0,0,0,0,994,30,1003,150,7097,3000,690,100,757,1000,716,300,970,5,0,0,0,0,0,0
3023,plantsoul,plantsoul,plantsoul,64,7099,0,3990,4390,1,410,760,0,45,1,85,25,99,70,46,10,12,1,6,83,0x3985,150,700,700,500,0,0,0,0,0,0,0,0,994,30,1003,150,7097,3000,690,100,757,1000,716,300,970,5,0,0,0,0,0,0
3024,PriestMummy,PriestMummy,PriestMummy,64,7099,0,3990,4390,1,410,760,0,45,1,85,25,99,70,46,10,12,1,6,83,0x3985,150,700,700,500,0,0,0,0,0,0,0,0,994,30,1003,150,7097,3000,690,100,757,1000,716,300,970,5,0,0,0,0,0,0
3025,Puppet,Puppet,Puppet,64,7099,0,3990,4390,1,410,760,0,45,1,85,25,99,70,46,10,12,1,6,83,0x3985,150,700,700,500,0,0,0,0,0,0,0,0,994,30,1003,150,7097,3000,690,100,757,1000,716,300,970,5,0,0,0,0,0,0
3026,Raven1,Raven1,Raven1,64,7099,0,3990,4390,1,410,760,0,45,1,85,25,99,70,46,10,12,1,6,83,0x3985,150,700,700,500,0,0,0,0,0,0,0,0,994,30,1003,150,7097,3000,690,100,757,1000,716,300,970,5,0,0,0,0,0,0
3027,Red_Headphones,Red_Headphones,Red_Headphones,64,7099,0,3990,4390,1,410,760,0,45,1,85,25,99,70,46,10,12,1,6,83,0x3985,150,700,700,500,0,0,0,0,0,0,0,0,994,30,1003,150,7097,3000,690,100,757,1000,716,300,970,5,0,0,0,0,0,0
3028,Yellow_Headphones,Yellow_Headphones,Yellow_Headphones,64,7099,0,3990,4390,1,410,760,0,45,1,85,25,99,70,46,10,12,1,6,83,0x3985,150,700,700,500,0,0,0,0,0,0,0,0,994,30,1003,150,7097,3000,690,100,757,1000,716,300,970,5,0,0,0,0,0,0
3029,Sign_Ghost,Sign_Ghost,Sign_Ghost,64,7099,0,3990,4390,1,410,760,0,45,1,85,25,99,70,46,10,12,1,6,83,0x3985,150,700,700,500,0,0,0,0,0,0,0,0,994,30,1003,150,7097,3000,690,100,757,1000,716,300,970,5,0,0,0,0,0,0
3030,Stoplight_Ghost,Stoplight_Ghost,Stoplight_Ghost,64,7099,0,3990,4390,1,410,760,0,45,1,85,25,99,70,46,10,12,1,6,83,0x3985,150,700,700,500,0,0,0,0,0,0,0,0,994,30,1003,150,7097,3000,690,100,757,1000,716,300,970,5,0,0,0,0,0,0
3031,Tantalus,Tantalus,Tantalus,64,7099,0,3990,4390,1,410,760,0,45,1,85,25,99,70,46,10,12,1,6,83,0x3985,150,700,700,500,0,0,0,0,0,0,0,0,994,30,1003,150,7097,3000,690,100,757,1000,716,300,970,5,0,0,0,0,0,0
3032,treesoul,treesoul,treesoul,64,7099,0,3990,4390,1,410,760,0,45,1,85,25,99,70,46,10,12,1,6,83,0x3985,150,700,700,500,0,0,0,0,0,0,0,0,994,30,1003,150,7097,3000,690,100,757,1000,716,300,970,5,0,0,0,0,0,0
3033,thanat2,thanat2,thanat2,64,7099,0,3990,4390,1,410,760,0,45,1,85,25,99,70,46,10,12,1,6,83,0x3985,150,700,700,500,0,0,0,0,0,0,0,0,994,30,1003,150,7097,3000,690,100,757,1000,716,300,970,5,0,0,0,0,0,0
3034,Sereia,Sereia,Sereia,64,7099,0,3990,4390,1,410,760,0,45,1,85,25,99,70,46,10,12,1,6,83,0x3985,150,700,700,500,0,0,0,0,0,0,0,0,994,30,1003,150,7097,3000,690,100,757,1000,716,300,970,5,0,0,0,0,0,0
3035,Verme,Verme,Verme,64,7099,0,3990,4390,1,410,760,0,45,1,85,25,99,70,46,10,12,1,6,83,0x3985,150,700,700,500,0,0,0,0,0,0,0,0,994,30,1003,150,7097,3000,690,100,757,1000,716,300,970,5,0,0,0,0,0,0
3036,ARIADNE,ARIADNE,ARIADNE,64,7099,0,3990,4390,1,410,760,0,45,1,85,25,99,70,46,10,12,1,6,83,0x3985,150,700,700,500,0,0,0,0,0,0,0,0,994,30,1003,150,7097,3000,690,100,757,1000,716,300,970,5,0,0,0,0,0,0
3037,BALROCK,Balrock,Balrock,64,7099,0,3990,4390,1,410,760,0,45,1,85,25,99,70,46,10,12,1,6,83,0x3985,150,700,700,500,0,0,0,0,0,0,0,0,994,30,1003,150,7097,3000,690,100,757,1000,716,300,970,5,0,0,0,0,0,0
3038,CASAMONSTRO,CASAMONSTRO,CASAMONSTRO,64,7099,0,3990,4390,1,410,760,0,45,1,85,25,99,70,46,10,12,1,6,83,0x3985,150,700,700,500,0,0,0,0,0,0,0,0,994,30,1003,150,7097,3000,690,100,757,1000,716,300,970,5,0,0,0,0,0,0
3039,Krampus,Krampus,Krampus,64,7099,0,3990,4390,1,410,760,0,45,1,85,25,99,70,46,10,12,1,6,83,0x3985,150,700,700,500,0,0,0,0,0,0,0,0,994,30,1003,150,7097,3000,690,100,757,1000,716,300,970,5,0,0,0,0,0,0
3040,Assouter,Assouter,Assouter,64,7099,0,3990,4390,1,410,760,0,45,1,85,25,99,70,46,10,12,1,6,83,0x3985,150,700,700,500,0,0,0,0,0,0,0,0,994,30,1003,150,7097,3000,690,100,757,1000,716,300,970,5,0,0,0,0,0,0
3041,Predator,Predator,Predator,64,7099,0,3990,4390,1,410,760,0,45,1,85,25,99,70,46,10,12,1,6,83,0x3985,150,700,700,500,0,0,0,0,0,0,0,0,994,30,1003,150,7097,3000,690,100,757,1000,716,300,970,5,0,0,0,0,0,0
3042,Addax,Addax,Addax,64,7099,0,3990,4390,1,410,760,0,45,1,85,25,99,70,46,10,12,1,6,83,0x3985,150,700,700,500,0,0,0,0,0,0,0,0,994,30,1003,150,7097,3000,690,100,757,1000,716,300,970,5,0,0,0,0,0,0
3043,Dragonas,Dragonas,Dragonas,64,7099,0,3990,4390,1,410,760,0,45,1,85,25,99,70,46,10,12,1,6,83,0x3985,150,700,700,500,0,0,0,0,0,0,0,0,994,30,1003,150,7097,3000,690,100,757,1000,716,300,970,5,0,0,0,0,0,0
3044,Chiroptera,Chiroptera,Chiroptera,64,7099,0,3990,4390,1,410,760,0,45,1,85,25,99,70,46,10,12,1,6,83,0x3985,150,700,700,500,0,0,0,0,0,0,0,0,994,30,1003,150,7097,3000,690,100,757,1000,716,300,970,5,0,0,0,0,0,0
3045,capitao_fantasma,capitao_fantasma,capitao_fantasma,64,7099,0,3990,4390,1,410,760,0,45,1,85,25,99,70,46,10,12,1,6,83,0x3985,150,700,700,500,0,0,0,0,0,0,0,0,994,30,1003,150,7097,3000,690,100,757,1000,716,300,970,5,0,0,0,0,0,0
3046,Deus_Morroc,Deus_Morroc,Deus_Morroc,64,7099,0,3990,4390,1,410,760,0,45,1,85,25,99,70,46,10,12,1,6,83,0x3985,150,700,700,500,0,0,0,0,0,0,0,0,994,30,1003,150,7097,3000,690,100,757,1000,716,300,970,5,0,0,0,0,0,0
3047,Catevamp,Catevamp,Catevamp,64,7099,0,3990,4390,1,410,760,0,45,1,85,25,99,70,46,10,12,1,6,83,0x3985,150,700,700,500,0,0,0,0,0,0,0,0,994,30,1003,150,7097,3000,690,100,757,1000,716,300,970,5,0,0,0,0,0,0
3048,Dino_Cock,Dino_Cock,Dino_Cock,64,7099,0,3990,4390,1,410,760,0,45,1,85,25,99,70,46,10,12,1,6,83,0x3985,150,700,700,500,0,0,0,0,0,0,0,0,994,30,1003,150,7097,3000,690,100,757,1000,716,300,970,5,0,0,0,0,0,0
3049,Arachne,Arachne,Arachne,64,7099,0,3990,4390,1,410,760,0,45,1,85,25,99,70,46,10,12,1,6,83,0x3985,150,700,700,500,0,0,0,0,0,0,0,0,994,30,1003,150,7097,3000,690,100,757,1000,716,300,970,5,0,0,0,0,0,0
3050,Dark_Hollow,Dark_Hollow,Dark_Hollow,64,7099,0,3990,4390,1,410,760,0,45,1,85,25,99,70,46,10,12,1,6,83,0x3985,150,700,700,500,0,0,0,0,0,0,0,0,994,30,1003,150,7097,3000,690,100,757,1000,716,300,970,5,0,0,0,0,0,0
3051,Fungos,Fungos,Fungos,64,7099,0,3990,4390,1,410,760,0,45,1,85,25,99,70,46,10,12,1,6,83,0x3985,150,700,700,500,0,0,0,0,0,0,0,0,994,30,1003,150,7097,3000,690,100,757,1000,716,300,970,5,0,0,0,0,0,0
3052,Guardiao_do_Gelo,Guardiao_do_Gelo,Guardiao_do_Gelo,64,7099,0,3990,4390,1,410,760,0,45,1,85,25,99,70,46,10,12,1,6,83,0x3985,150,700,700,500,0,0,0,0,0,0,0,0,994,30,1003,150,7097,3000,690,100,757,1000,716,300,970,5,0,0,0,0,0,0
3053,GLADIADOR,GLADIADOR,GLADIADOR,64,7099,0,3990,4390,1,410,760,0,45,1,85,25,99,70,46,10,12,1,6,83,0x3985,150,700,700,500,0,0,0,0,0,0,0,0,994,30,1003,150,7097,3000,690,100,757,1000,716,300,970,5,0,0,0,0,0,0
3054,Molusco_Envenado,Molusco_Envenado,Molusco_Envenado,64,7099,0,3990,4390,1,410,760,0,45,1,85,25,99,70,46,10,12,1,6,83,0x3985,150,700,700,500,0,0,0,0,0,0,0,0,994,30,1003,150,7097,3000,690,100,757,1000,716,300,970,5,0,0,0,0,0,0
3055,Fantasma_Azul,Fantasma_Azul,Fantasma_Azul,64,7099,0,3990,4390,1,410,760,0,45,1,85,25,99,70,46,10,12,1,6,83,0x3985,150,700,700,500,0,0,0,0,0,0,0,0,994,30,1003,150,7097,3000,690,100,757,1000,716,300,970,5,0,0,0,0,0,0
3056,Encantadora_dos_Mares,Encantadora_dos_Mares,Encantadora_dos_Mares,64,7099,0,3990,4390,1,410,760,0,45,1,85,25,99,70,46,10,12,1,6,83,0x3985,150,700,700,500,0,0,0,0,0,0,0,0,994,30,1003,150,7097,3000,690,100,757,1000,716,300,970,5,0,0,0,0,0,0
3057,Lorde_Trevoso,Lorde_Trevoso,Lorde_Trevoso,64,7099,0,3990,4390,1,410,760,0,45,1,85,25,99,70,46,10,12,1,6,83,0x3985,150,700,700,500,0,0,0,0,0,0,0,0,994,30,1003,150,7097,3000,690,100,757,1000,716,300,970,5,0,0,0,0,0,0
3058,Fantasma_Maiden,Fantasma_Maiden,Fantasma_Maiden,64,7099,0,3990,4390,1,410,760,0,45,1,85,25,99,70,46,10,12,1,6,83,0x3985,150,700,700,500,0,0,0,0,0,0,0,0,994,30,1003,150,7097,3000,690,100,757,1000,716,300,970,5,0,0,0,0,0,0
3059,Lord_Of_Death_Golden,Lord_Of_Death_Golden,Lord_Of_Death_Golden,64,7099,0,3990,4390,1,410,760,0,45,1,85,25,99,70,46,10,12,1,6,83,0x3985,150,700,700,500,0,0,0,0,0,0,0,0,994,30,1003,150,7097,3000,690,100,757,1000,716,300,970,5,0,0,0,0,0,0
3060,Pequena_Flor,Pequena_Flor,Pequena_Flor,64,7099,0,3990,4390,1,410,760,0,45,1,85,25,99,70,46,10,12,1,6,83,0x3985,150,700,700,500,0,0,0,0,0,0,0,0,994,30,1003,150,7097,3000,690,100,757,1000,716,300,970,5,0,0,0,0,0,0
3061,Garraz,Garraz,Garraz,64,7099,0,3990,4390,1,410,760,0,45,1,85,25,99,70,46,10,12,1,6,83,0x3985,150,700,700,500,0,0,0,0,0,0,0,0,994,30,1003,150,7097,3000,690,100,757,1000,716,300,970,5,0,0,0,0,0,0
3062,Goku_SSJ4,Goku_SSJ4,Goku_SSJ4,64,7099,0,3990,4390,1,410,760,0,45,1,85,25,99,70,46,10,12,1,6,83,0x3985,150,700,700,500,0,0,0,0,0,0,0,0,994,30,1003,150,7097,3000,690,100,757,1000,716,300,970,5,0,0,0,0,0,0
3063,Livro_das_Trevas,Livro_das_Trevas,Livro_das_Trevas,64,7099,0,3990,4390,1,410,760,0,45,1,85,25,99,70,46,10,12,1,6,83,0x3985,150,700,700,500,0,0,0,0,0,0,0,0,994,30,1003,150,7097,3000,690,100,757,1000,716,300,970,5,0,0,0,0,0,0
3064,Lobo_Fogaz,Lobo_Fogaz,Lobo_Fogaz,64,7099,0,3990,4390,1,410,760,0,45,1,85,25,99,70,46,10,12,1,6,83,0x3985,150,700,700,500,0,0,0,0,0,0,0,0,994,30,1003,150,7097,3000,690,100,757,1000,716,300,970,5,0,0,0,0,0,0
3065,Farao_Encantado,Farao_Encantado,Farao_Encantado,64,7099,0,3990,4390,1,410,760,0,45,1,85,25,99,70,46,10,12,1,6,83,0x3985,150,700,700,500,0,0,0,0,0,0,0,0,994,30,1003,150,7097,3000,690,100,757,1000,716,300,970,5,0,0,0,0,0,0
3066,Passaro_Encantado,Passaro_Encantado,Passaro_Encantado,64,7099,0,3990,4390,1,410,760,0,45,1,85,25,99,70,46,10,12,1,6,83,0x3985,150,700,700,500,0,0,0,0,0,0,0,0,994,30,1003,150,7097,3000,690,100,757,1000,716,300,970,5,0,0,0,0,0,0
3067,Jadira,Jadira,Jadira,64,7099,0,3990,4390,1,410,760,0,45,1,85,25,99,70,46,10,12,1,6,83,0x3985,150,700,700,500,0,0,0,0,0,0,0,0,994,30,1003,150,7097,3000,690,100,757,1000,716,300,970,5,0,0,0,0,0,0
3068,Chefe_do_Porto,Chefe_do_Porto,Chefe_do_Porto,64,7099,0,3990,4390,1,410,760,0,45,1,85,25,99,70,46,10,12,1,6,83,0x3985,150,700,700,500,0,0,0,0,0,0,0,0,994,30,1003,150,7097,3000,690,100,757,1000,716,300,970,5,0,0,0,0,0,0
3069,bad_fury,bad_fury,bad_fury,64,7099,0,3990,4390,1,410,760,0,45,1,85,25,99,70,46,10,12,1,6,83,0x3985,150,700,700,500,0,0,0,0,0,0,0,0,994,30,1003,150,7097,3000,690,100,757,1000,716,300,970,5,0,0,0,0,0,0
3070,Predator,Predator,Predator,64,7099,0,3990,4390,1,410,760,0,45,1,85,25,99,70,46,10,12,1,6,83,0x3985,150,700,700,500,0,0,0,0,0,0,0,0,994,30,1003,150,7097,3000,690,100,757,1000,716,300,970,5,0,0,0,0,0,0
3071,Sapo_camaleao,Sapo_camaleao,Sapo_camaleao,64,7099,0,3990,4390,1,410,760,0,45,1,85,25,99,70,46,10,12,1,6,83,0x3985,150,700,700,500,0,0,0,0,0,0,0,0,994,30,1003,150,7097,3000,690,100,757,1000,716,300,970,5,0,0,0,0,0,0
3072,Largato_Terraz,Largato_Terraz,Largato_Terraz,64,7099,0,3990,4390,1,410,760,0,45,1,85,25,99,70,46,10,12,1,6,83,0x3985,150,700,700,500,0,0,0,0,0,0,0,0,994,30,1003,150,7097,3000,690,100,757,1000,716,300,970,5,0,0,0,0,0,0
3073,Administrador,Administrador,Administrador,64,7099,0,3990,4390,1,410,760,0,45,1,85,25,99,70,46,10,12,1,6,83,0x3985,150,700,700,500,0,0,0,0,0,0,0,0,994,30,1003,150,7097,3000,690,100,757,1000,716,300,970,5,0,0,0,0,0,0
3074,Ballet_blue,Ballet_blue,Ballet_blue,64,7099,0,3990,4390,1,410,760,0,45,1,85,25,99,70,46,10,12,1,6,83,0x3985,150,700,700,500,0,0,0,0,0,0,0,0,994,30,1003,150,7097,3000,690,100,757,1000,716,300,970,5,0,0,0,0,0,0
//3075,VIRUSG,VIRUSG,VIRUSG,64,7099,0,3990,4390,1,410,760,0,45,1,85,25,99,70,46,10,12,1,6,83,0x3985,150,700,700,500,0,0,0,0,0,0,0,0,994,30,1003,150,7097,3000,690,100,757,1000,716,300,970,5,0,0,0,0,0,0
3076,Aposis,Aposis,Aposis,64,7099,0,3990,4390,1,410,760,0,45,1,85,25,99,70,46,10,12,1,6,83,0x3985,150,700,700,500,0,0,0,0,0,0,0,0,994,30,1003,150,7097,3000,690,100,757,1000,716,300,970,5,0,0,0,0,0,0
3077,Bug_Bear,Bug_Bear,Bug_Bear,64,7099,0,3990,4390,1,410,760,0,45,1,85,25,99,70,46,10,12,1,6,83,0x3985,150,700,700,500,0,0,0,0,0,0,0,0,994,30,1003,150,7097,3000,690,100,757,1000,716,300,970,5,0,0,0,0,0,0
3078,Captain_Arman,Captain_Arman,Captain_Arman,64,7099,0,3990,4390,1,410,760,0,45,1,85,25,99,70,46,10,12,1,6,83,0x3985,150,700,700,500,0,0,0,0,0,0,0,0,994,30,1003,150,7097,3000,690,100,757,1000,716,300,970,5,0,0,0,0,0,0
3079,Captain_Charman,Captain_Charman,Captain_Charman,64,7099,0,3990,4390,1,410,760,0,45,1,85,25,99,70,46,10,12,1,6,83,0x3985,150,700,700,500,0,0,0,0,0,0,0,0,994,30,1003,150,7097,3000,690,100,757,1000,716,300,970,5,0,0,0,0,0,0
3080,Cora_Pyupyu,Cora_Pyupyu,Cora_Pyupyu,64,7099,0,3990,4390,1,410,760,0,45,1,85,25,99,70,46,10,12,1,6,83,0x3985,150,700,700,500,0,0,0,0,0,0,0,0,994,30,1003,150,7097,3000,690,100,757,1000,716,300,970,5,0,0,0,0,0,0
3081,Curse_Straw,Curse_Straw,Curse_Straw,64,7099,0,3990,4390,1,410,760,0,45,1,85,25,99,70,46,10,12,1,6,83,0x3985,150,700,700,500,0,0,0,0,0,0,0,0,994,30,1003,150,7097,3000,690,100,757,1000,716,300,970,5,0,0,0,0,0,0
3082,Fanta_Fish,Fanta_Fish,Fanta_Fish,64,7099,0,3990,4390,1,410,760,0,45,1,85,25,99,70,46,10,12,1,6,83,0x3985,150,700,700,500,0,0,0,0,0,0,0,0,994,30,1003,150,7097,3000,690,100,757,1000,716,300,970,5,0,0,0,0,0,0
3083,Fire_Moth,Fire_Moth,Fire_Moth,64,7099,0,3990,4390,1,410,760,0,45,1,85,25,99,70,46,10,12,1,6,83,0x3985,150,700,700,500,0,0,0,0,0,0,0,0,994,30,1003,150,7097,3000,690,100,757,1000,716,300,970,5,0,0,0,0,0,0
3084,Foe,Foe,Foe,64,7099,0,3990,4390,1,410,760,0,45,1,85,25,99,70,46,10,12,1,6,83,0x3985,150,700,700,500,0,0,0,0,0,0,0,0,994,30,1003,150,7097,3000,690,100,757,1000,716,300,970,5,0,0,0,0,0,0
3085,Forest_Tickler,Forest_Tickler,Forest_Tickler,64,7099,0,3990,4390,1,410,760,0,45,1,85,25,99,70,46,10,12,1,6,83,0x3985,150,700,700,500,0,0,0,0,0,0,0,0,994,30,1003,150,7097,3000,690,100,757,1000,716,300,970,5,0,0,0,0,0,0
3086,Forest_Wasp,Forest_Wasp,Forest_Wasp,64,7099,0,3990,4390,1,410,760,0,45,1,85,25,99,70,46,10,12,1,6,83,0x3985,150,700,700,500,0,0,0,0,0,0,0,0,994,30,1003,150,7097,3000,690,100,757,1000,716,300,970,5,0,0,0,0,0,0
3087,Golden_Mole,Golden_Mole,Golden_Mole,64,7099,0,3990,4390,1,410,760,0,45,1,85,25,99,70,46,10,12,1,6,83,0x3985,150,700,700,500,0,0,0,0,0,0,0,0,994,30,1003,150,7097,3000,690,100,757,1000,716,300,970,5,0,0,0,0,0,0
3088,Goma,Goma,Goma,64,7099,0,3990,4390,1,410,760,0,45,1,85,25,99,70,46,10,12,1,6,83,0x3985,150,700,700,500,0,0,0,0,0,0,0,0,994,30,1003,150,7097,3000,690,100,757,1000,716,300,970,5,0,0,0,0,0,0
3089,Halli,Halli,Halli,64,7099,0,3990,4390,1,410,760,0,45,1,85,25,99,70,46,10,12,1,6,83,0x3985,150,700,700,500,0,0,0,0,0,0,0,0,994,30,1003,150,7097,3000,690,100,757,1000,716,300,970,5,0,0,0,0,0,0
3090,Kaboom,Kaboom,Kaboom,64,7099,0,3990,4390,1,410,760,0,45,1,85,25,99,70,46,10,12,1,6,83,0x3985,150,700,700,500,0,0,0,0,0,0,0,0,994,30,1003,150,7097,3000,690,100,757,1000,716,300,970,5,0,0,0,0,0,0
3091,Koom,Koom,Koom,64,7099,0,3990,4390,1,410,760,0,45,1,85,25,99,70,46,10,12,1,6,83,0x3985,150,700,700,500,0,0,0,0,0,0,0,0,994,30,1003,150,7097,3000,690,100,757,1000,716,300,970,5,0,0,0,0,0,0
3092,Leviathan,Leviathan,Leviathan,64,7099,0,3990,4390,1,410,760,0,45,1,85,25,99,70,46,10,12,1,6,83,0x3985,150,700,700,500,0,0,0,0,0,0,0,0,994,30,1003,150,7097,3000,690,100,757,1000,716,300,970,5,0,0,0,0,0,0
3093,Madame_Chiffon,Madame_Chiffon,Madame_Chiffon,64,7099,0,3990,4390,1,410,760,0,45,1,85,25,99,70,46,10,12,1,6,83,0x3985,150,700,700,500,0,0,0,0,0,0,0,0,994,30,1003,150,7097,3000,690,100,757,1000,716,300,970,5,0,0,0,0,0,0
3094,Marie_Toy,Marie_Toy,Marie_Toy,64,7099,0,3990,4390,1,410,760,0,45,1,85,25,99,70,46,10,12,1,6,83,0x3985,150,700,700,500,0,0,0,0,0,0,0,0,994,30,1003,150,7097,3000,690,100,757,1000,716,300,970,5,0,0,0,0,0,0
3095,Merman_Ale,Merman_Ale,Merman_Ale,64,7099,0,3990,4390,1,410,760,0,45,1,85,25,99,70,46,10,12,1,6,83,0x3985,150,700,700,500,0,0,0,0,0,0,0,0,994,30,1003,150,7097,3000,690,100,757,1000,716,300,970,5,0,0,0,0,0,0
3096,Monkeya,Monkeya,Monkeya,64,7099,0,3990,4390,1,410,760,0,45,1,85,25,99,70,46,10,12,1,6,83,0x3985,150,700,700,500,0,0,0,0,0,0,0,0,994,30,1003,150,7097,3000,690,100,757,1000,716,300,970,5,0,0,0,0,0,0
3097,Mummy,Mummy,Mummy,64,7099,0,3990,4390,1,410,760,0,45,1,85,25,99,70,46,10,12,1,6,83,0x3985,150,700,700,500,0,0,0,0,0,0,0,0,994,30,1003,150,7097,3000,690,100,757,1000,716,300,970,5,0,0,0,0,0,0
3098,Myconid,Myconid,Myconid,64,7099,0,3990,4390,1,410,760,0,45,1,85,25,99,70,46,10,12,1,6,83,0x3985,150,700,700,500,0,0,0,0,0,0,0,0,994,30,1003,150,7097,3000,690,100,757,1000,716,300,970,5,0,0,0,0,0,0
3099,Queen_Mummy,Queen_Mummy,Queen_Mummy,64,7099,0,3990,4390,1,410,760,0,45,1,85,25,99,70,46,10,12,1,6,83,0x3985,150,700,700,500,0,0,0,0,0,0,0,0,994,30,1003,150,7097,3000,690,100,757,1000,716,300,970,5,0,0,0,0,0,0
3100,Real_Golden_Mole,Real_Golden_Mole,Real_Golden_Mole,64,7099,0,3990,4390,1,410,760,0,45,1,85,25,99,70,46,10,12,1,6,83,0x3985,150,700,700,500,0,0,0,0,0,0,0,0,994,30,1003,150,7097,3000,690,100,757,1000,716,300,970,5,0,0,0,0,0,0
3101,Seth,Seth,Seth,64,7099,0,3990,4390,1,410,760,0,45,1,85,25,99,70,46,10,12,1,6,83,0x3985,150,700,700,500,0,0,0,0,0,0,0,0,994,30,1003,150,7097,3000,690,100,757,1000,716,300,970,5,0,0,0,0,0,0
3102,Simbatta,Simbatta,Simbatta,64,7099,0,3990,4390,1,410,760,0,45,1,85,25,99,70,46,10,12,1,6,83,0x3985,150,700,700,500,0,0,0,0,0,0,0,0,994,30,1003,150,7097,3000,690,100,757,1000,716,300,970,5,0,0,0,0,0,0
3103,Standing_Salamander,Standing_Salamander,Standing_Salamander,64,7099,0,3990,4390,1,410,760,0,45,1,85,25,99,70,46,10,12,1,6,83,0x3985,150,700,700,500,0,0,0,0,0,0,0,0,994,30,1003,150,7097,3000,690,100,757,1000,716,300,970,5,0,0,0,0,0,0
// ======================================//
//    SEASON II -   LHZ SMARTRO         //
//=====================================//
// Lighthalzen Biolab F4 MVP's
3116,G_RANDEL,Paladino Randel,Paladino Randel,260,3870000,0,4000000,1500000,1,3055,4277,667,151,303,165,181,110,178,66,10,12,1,7,86,0x37B5,100,76,384,288,0,0,0,0,0,0,0,6224,100,617,10,0,0,0,0,0,0,0,0,0,0,0,0,0,0,0,30015,100
3114,G_FLAMEL,Criador Flamel,Criador Flamel,260,2230000,0,4000000,1500000,1,1074,1503,253,133,275,148,156,72,177,60,10,12,1,7,83,0x37B5,100,76,384,288,0,0,0,0,0,0,0,6223,100,617,10,0,0,0,0,0,0,0,0,0,0,0,0,0,0,0,30002,100
3112,G_CELIA,Professora Celia,Professora Celia,260,2030000,1847804,0,4000000,1500000,1,1612,2256,201,543,165,190,142,236,199,93,10,12,1,7,88,0x37B5,150,1152,384,288,0,0,0,0,0,0,0,6224,100,617,10,0,0,0,0,0,0,0,0,0,0,0,0,0,0,0,30003,100
3113,G_CHEN,Mestre Chen,Mestre Chen,260,2249350,5000,4000000,1500000,1,2501,3501,216,134,172,150,164,203,155,88,10,12,1,6,81,0x37B5,125,1152,384,288,0,0,0,0,0,0,0,6223,100,617,10,0,0,0,0,0,0,0,0,0,0,0,0,0,0,00,,30004,100
3115,G_GERTIE,Desordeira Gertie,Desordeira Gertie,260,2057279,0,4000000,1500000,1,3684,5157,251,107,211,181,114,83,225,60,10,12,1,6,85,0x37B5,100,76,384,288,0,0,0,0,0,0,0,6224,100,617,10,0,0,0,0,0,0,0,0,0,0,0,0,0,0,0,30005,100
3111,G_ALPHOCCIO,Menestrel Alphoccio,Menestrel Alphoccio,260,1894278,0,4000000,1500000,1,1273,1782,201,109,176,258,155,132,309,95,10,12,1,7,84,0x37B5,100,76,384,288,0,0,0,0,0,0,0,6223,100,617,10,0,0,0,0,0,0,0,0,0,0,0,0,0,0,0,30006,100
3117,G_TRENTINI,Cigana Trentini,Cigana Trentini,260,1894278,0,4000000,1500000,1,1070,1498,181,112,176,258,155,132,309,95,10,12,1,7,84,0x37B5,100,76,384,288,0,0,0,0,0,0,0,6224,100,617,10,0,0,0,0,0,0,0,0,0,0,0,0,0,0,0,30007,100
// Lighthalzen Biolab F4
3109,RANDEL,Randel,Randel,241,478745,0,1000000,15000,1,3055,4277,180,56,142,69,86,49,132,55,10,12,1,7,66,0x3095,170,76,384,288,0,0,0,0,0,0,0,7345,3000,6470,300,6471,300,985,100,617,10,1435,1,2162,1,0,0,0,7549,10,30008,100
3107,FLAMEL,Flamel,Flamel,241,316468,0,1000000,15000,1,1074,1503,93,40,138,79,62,53,82,48,10,12,1,7,63,0x3095,180,76,384,288,0,0,0,0,0,0,0,7345,3000,6470,300,6471,300,984,100,617,10,16010,10,15044,1,0,0,0,7549,10,30009,100
3105,CELIA,Celia,Celia,241,253145,0,1000000,15000,1,1612,2256,74,312,108,78,55,144,139,49,10,12,1,7,68,0x3295,150,1152,384,288,0,0,0,0,0,0,0,7345,3000,6470,300,6471,300,985,100,1654,10,2853,10,18111,1,0,0,0,7549,10,30010,100
3106,CHEN,Chen,Chen,241,218721,2000,1000000,15000,1,2501,3501,125,56,126,74,71,123,99,65,10,12,1,6,81,0x3295,180,1152,384,288,0,0,0,0,0,0,0,7347,2000,6470,300,6471,300,984,100,617,10,1814,10,1659,1,0,0,0,7549,10,30011,100
3108,GERTIE,Gertie,Gertie,241,266926,0,1000000,15000,1,3684,5157,108,10,145,87,59,67,127,76,10,12,1,6,85,0x3195,180,76,384,288,0,0,0,0,0,0,0,7347,2000,6470,300,6471,300,985,100,617,10,13061,10,18109,1,0,0,0,7549,10,30012,100
3104,ALPHOCCIO,Alphoccio,Alphoccio,242,256202,0,1000000,15000,1,1273,1782,84,15,121,126,67,80,165,42,10,12,1,7,64,0x3095,180,76,384,288,0,0,0,0,0,0,0,7347,2000,6470,300,6471,300,984,100,617,10,1930,10,2161,1,0,0,0,7549,10,30013,100
3110,TRENTINI,Trentini,Trentini,242,204962,0,1000000,15000,1,1070,1498,70,12,121,126,67,80,165,42,10,12,1,7,64,0x3095,180,76,384,288,0,0,0,0,0,0,0,7347,2000,6470,300,6471,300,985,100,1984,10,2465,10,2892,1,0,0,0,7549,10,30014,100
// ======================================//
//      SEASON II -    LHZ 3RD SMARTRO  //
//=====================================//
3118,Brooke,Brooke Magaretha,Brooke Magaretha,360,570280,5000,2000000,1000000,1,29700,30097,10,74,10,5,77,40,310,39,10,12,1,7,80,141,100,152,384,288,0,0,0,0,0,0,0,0,0,0,0,0,0,0,0,0,0,0,0,0,0,0,7549,10,7199,1,7622,1
3119,Chloe,Chloe Alt-Eisen,Chloe Alt-Eisen,360,512082,0,8000000,1000000,1,3000,5053,35,60,99,9,97,145,150,40,10,12,1,7,83,133,180,552,384,288,0,0,0,0,0,0,0,0,0,0,0,0,0,0,0,0,0,0,0,0,0,0,7549,10,7199,1,7622,1
3120,Ivan,Ivan Windsor,Ivan Windsor,360,1108402,0,4000000,1000000,1,5000,7030,63,12,10,89,150,20,150,25,10,12,1,8,86,141,170,76,384,288,0,0,0,0,0,0,0,0,0,0,0,0,0,0,0,0,0,0,0,0,0,0,7549,10,7199,1,7622,1
3121,Kennet,Kennet Guile,Kennet Guile,360,400199,500,4000000,1000000,14,20020,30320,23,12,190,138,31,19,200,30,10,12,1,7,89,149,180,76,384,288,0,0,0,0,0,0,0,0,0,0,0,0,0,0,0,0,0,0,0,0,0,0,7549,10,7199,1,7622,1
3122,Mao,Mao Keyron,Mao Keyron,360,607280,5000,8000000,5000000,1,24097,36097,10,74,1,5,77,700,110,39,10,12,1,7,80,141,150,1152,384,288,0,0,0,0,0,0,0,0,0,0,0,0,0,0,0,0,0,0,0,0,0,0,7549,10,7199,1,7622,1
3123,Nergal,Nergal Alt-Eisen,Nergal Alt-Eisen,360,501282,0,8000000,5000000,1,3000,7053,35,60,1,9,97,300,150,40,10,12,1,7,83,141,180,1152,384,288,0,0,0,0,0,0,0,0,0,0,0,0,0,0,0,0,0,0,0,0,0,0,7549,10,7199,1,7622,1
3124,Ren,Ren Guile,Ren Guile,360,500199,500,8000000,5000000,1,20020,33020,23,12,255,150,31,19,150,30,10,12,1,7,89,133,180,1,384,288,0,0,0,0,0,0,0,0,0,0,0,0,0,0,0,0,0,0,0,0,0,0,7549,10,7199,1,7622,1
3125,Roots,Roots Damon,Roots Damon,360,508690,200,8000000,5000000,14,8090,13090,59,10,1,62,99,35,99,66,10,12,1,7,82,149,150,256,284,288,0,0,0,0,0,0,0,0,0,0,0,0,0,0,0,0,0,0,0,0,0,0,7549,10,7199,1,7622,1
3126,Seville,Seville Windsor,Seville Windsor,360,818402,5000,6000000,5000000,1,53100,75530,63,12,190,40,79,20,100,25,10,12,1,7,66,149,150,486,384,288,0,0,0,0,0,0,0,0,0,0,0,0,0,0,0,0,0,0,0,0,0,0,7549,10,7199,1,7622,1
3127,Wieder,Wieder Keyron,Wieder Keyron,360,387280,0,4000000,1000000,1,24097,31697,10,74,1,5,77,500,110,39,10,12,1,7,80,133,150,1152,384,288,0,0,0,0,0,0,0,0,0,0,0,0,0,0,0,0,0,0,0,0,0,0,7549,10,7199,1,7622,1
3128,T_Seyren,T_Seyren,T_Seyren,360,478745,0,1000000,15000,1,3055,4277,180,56,142,69,86,49,132,55,10,12,1,7,66,0x3095,170,76,384,288,0,0,0,0,0,0,0,7345,3000,6470,300,6471,300,985,100,617,10,1435,1,2162,1,0,0,0,7549,10,20013,1
3129,T_Harword,T_Harword,T_Harword,360,316468,0,1000000,15000,1,1074,1503,93,40,138,79,62,53,82,48,10,12,1,7,63,0x3095,180,76,384,288,0,0,0,0,0,0,0,7345,3000,6470,300,6471,300,984,100,617,10,16010,10,15044,1,0,0,0,7549,10,20014,1
3130,T_Magaleta,Arch Bishop,Arch Bishop,360,253145,0,1000000,15000,1,1612,2256,74,312,108,78,55,144,139,49,10,12,1,7,68,0x3295,150,1152,384,288,0,0,0,0,0,0,0,7345,3000,6470,300,6471,300,985,100,1654,10,2853,10,18111,1,0,0,0,7549,10,20015,1
3131,T_Chen,Farrah Sorin,Farrah Sorin,360,218721,2000,1000000,15000,1,2501,3501,125,56,126,74,71,123,99,65,10,12,1,6,81,0x3295,180,1152,384,288,0,0,0,0,0,0,0,7347,2000,6470,300,6471,300,984,100,617,10,1814,10,1659,1,0,0,0,7549,10,20016,1
3132,T_Trentini,Trentine,Trentini,360,266926,0,1000000,15000,1,3684,5157,108,10,145,87,59,67,127,76,10,12,1,6,85,0x3195,180,76,384,288,0,0,0,0,0,0,0,7347,2000,6470,300,6471,300,985,100,617,10,13061,10,18109,1,0,0,0,7549,10,20017,1
3133,T_Alphoccio,T_Alphoccio,T_Alphoccio,360,256202,0,1000000,15000,1,1273,1782,84,15,121,126,67,80,165,42,10,12,1,7,64,0x3095,180,76,384,288,0,0,0,0,0,0,0,7347,2000,6470,300,6471,300,984,100,617,10,1930,10,2161,1,0,0,0,7549,10,20018,1
// ======================================//
//        SEASON II -  Porings SMARTRO  //
//=====================================// 
3300,AQUARING,Poring D'Agua,Poring D'Agua,1,50,0,2,1,1,7,10,0,5,1,1,1,0,6,30,10,12,1,3,21,0x83,400,1872,672,480,0,0,0,0,0,0,0,0,909,7000,1202,100,938,400,512,1000,713,1500,512,150,619,20,0,0,0,0,4001,1
3301,BLACKNEKORING,Nekoring Negro,Nekoring Negro,1,50,0,2,1,1,7,10,0,5,1,1,1,0,6,30,10,12,1,3,21,0x83,400,1872,672,480,0,0,0,0,0,0,0,0,909,7000,1202,100,938,400,512,1000,713,1500,512,150,619,20,0,0,0,0,4001,1
3302,BLOODRING,Poring de Sangue,Poring de Sangue,1,50,0,2,1,1,7,10,0,5,1,1,1,0,6,30,10,12,1,3,21,0x83,400,1872,672,480,0,0,0,0,0,0,0,0,909,7000,1202,100,938,400,512,1000,713,1500,512,150,619,20,0,0,0,0,4001,1
3303,BLUENEKORING,Nekoring Azul,Nekoring Azul,1,50,0,2,1,1,7,10,0,5,1,1,1,0,6,30,10,12,1,3,21,0x83,400,1872,672,480,0,0,0,0,0,0,0,0,909,7000,1202,100,938,400,512,1000,713,1500,512,150,619,20,0,0,0,0,4001,1
3304,COWRING,Poring Vaquinha,Poring Vaquinha,1,50,0,2,1,1,7,10,0,5,1,1,1,0,6,30,10,12,1,3,21,0x83,400,1872,672,480,0,0,0,0,0,0,0,0,909,7000,1202,100,938,400,512,1000,713,1500,512,150,619,20,0,0,0,0,4001,1
3305,CREAMRING,Poring Creme,Poring Creme,1,50,0,2,1,1,7,10,0,5,1,1,1,0,6,30,10,12,1,3,21,0x83,400,1872,672,480,0,0,0,0,0,0,0,0,909,7000,1202,100,938,400,512,1000,713,1500,512,150,619,20,0,0,0,0,4001,1
3306,DEMONRING,Poring Demônio,Poring Demônio,1,50,0,2,1,1,7,10,0,5,1,1,1,0,6,30,10,12,1,3,21,0x83,400,1872,672,480,0,0,0,0,0,0,0,0,909,7000,1202,100,938,400,512,1000,713,1500,512,150,619,20,0,0,0,0,4001,1
3307,GHOSTPORING,Poring Fantasma,Poring Fantasma,1,50,0,2,1,1,7,10,0,5,1,1,1,0,6,30,10,12,1,3,21,0x83,400,1872,672,480,0,0,0,0,0,0,0,0,909,7000,1202,100,938,400,512,1000,713,1500,512,150,619,20,0,0,0,0,4001,1
3308,GLOOMRING,Poring Melancólico,Poring Melancólico,1,50,0,2,1,1,7,10,0,5,1,1,1,0,6,30,10,12,1,3,21,0x83,400,1872,672,480,0,0,0,0,0,0,0,0,909,7000,1202,100,938,400,512,1000,713,1500,512,150,619,20,0,0,0,0,4001,1
3309,GREENAPPLEPORING,Poring Maçã Verde,Poring Maçã Verde,1,50,0,2,1,1,7,10,0,5,1,1,1,0,6,30,10,12,1,3,21,0x83,400,1872,672,480,0,0,0,0,0,0,0,0,909,7000,1202,100,938,400,512,1000,713,1500,512,150,619,20,0,0,0,0,4001,1
3310,GREENNEKORING,Nekoring Verde,Nekoring Verde,1,50,0,2,1,1,7,10,0,5,1,1,1,0,6,30,10,12,1,3,21,0x83,400,1872,672,480,0,0,0,0,0,0,0,0,909,7000,1202,100,938,400,512,1000,713,1500,512,150,619,20,0,0,0,0,4001,1
3311,GREYNEKORING,Nekoring Cinzento,Nekoring Cinzento,1,50,0,2,1,1,7,10,0,5,1,1,1,0,6,30,10,12,1,3,21,0x83,400,1872,672,480,0,0,0,0,0,0,0,0,909,7000,1202,100,938,400,512,1000,713,1500,512,150,619,20,0,0,0,0,4001,1
3312,HALLOWRING,Poring Dia das Bruxas,Poring Dia das Bruxas,1,50,0,2,1,1,7,10,0,5,1,1,1,0,6,30,10,12,1,3,21,0x83,400,1872,672,480,0,0,0,0,0,0,0,0,909,7000,1202,100,938,400,512,1000,713,1500,512,150,619,20,0,0,0,0,4001,1
3313,LOVEPORING,Poring do Amor,Poring do Amor,1,50,0,2,1,1,7,10,0,5,1,1,1,0,6,30,10,12,1,3,21,0x83,400,1872,672,480,0,0,0,0,0,0,0,0,909,7000,1202,100,938,400,512,1000,713,1500,512,150,619,20,0,0,0,0,4001,1
3314,NEKORING,Nekoring,Nekoring,1,50,0,2,1,1,7,10,0,5,1,1,1,0,6,30,10,12,1,3,21,0x83,400,1872,672,480,0,0,0,0,0,0,0,0,909,7000,1202,100,938,400,512,1000,713,1500,512,150,619,20,0,0,0,0,4001,1
3315,ORCPORING,Poring Orc,Poring Orc,1,50,0,2,1,1,7,10,0,5,1,1,1,0,6,30,10,12,1,3,21,0x83,400,1872,672,480,0,0,0,0,0,0,0,0,909,7000,1202,100,938,400,512,1000,713,1500,512,150,619,20,0,0,0,0,4001,1
3316,PANDARING,Poring Panda,Poring Panda,1,50,0,2,1,1,7,10,0,5,1,1,1,0,6,30,10,12,1,3,21,0x83,400,1872,672,480,0,0,0,0,0,0,0,0,909,7000,1202,100,938,400,512,1000,713,1500,512,150,619,20,0,0,0,0,4001,1
3317,PINKNEKORING,Nekoring Rosa,Nekoring Rosa,1,50,0,2,1,1,7,10,0,5,1,1,1,0,6,30,10,12,1,3,21,0x83,400,1872,672,480,0,0,0,0,0,0,0,0,909,7000,1202,100,938,400,512,1000,713,1500,512,150,619,20,0,0,0,0,4001,1
3318,PORINGKING,Príncipe Poring,Príncipe Poring,1,50,0,2,1,1,7,10,0,5,1,1,1,0,6,30,10,12,1,3,21,0x83,400,1872,672,480,0,0,0,0,0,0,0,0,909,7000,1202,100,938,400,512,1000,713,1500,512,150,619,20,0,0,0,0,4001,1
3319,PUMPKINRING,Poring Abóbora,Poring Abóbora,1,50,0,2,1,1,7,10,0,5,1,1,1,0,6,30,10,12,1,3,21,0x83,400,1872,672,480,0,0,0,0,0,0,0,0,909,7000,1202,100,938,400,512,1000,713,1500,512,150,619,20,0,0,0,0,4001,1
3320,PURPLENEKORING,Nekoring Roxo,Nekoring Roxo,1,50,0,2,1,1,7,10,0,5,1,1,1,0,6,30,10,12,1,3,21,0x83,400,1872,672,480,0,0,0,0,0,0,0,0,909,7000,1202,100,938,400,512,1000,713,1500,512,150,619,20,0,0,0,0,4001,1
3321,REDAPPLEPORING,Poring Maçã Vermelha,Poring Maçã Vermelha,1,50,0,2,1,1,7,10,0,5,1,1,1,0,6,30,10,12,1,3,21,0x83,400,1872,672,480,0,0,0,0,0,0,0,0,909,7000,1202,100,938,400,512,1000,713,1500,512,150,619,20,0,0,0,0,4001,1
3322,SPROURING,Poring Planta,Poring Planta,1,50,0,2,1,1,7,10,0,5,1,1,1,0,6,30,10,12,1,3,21,0x83,400,1872,672,480,0,0,0,0,0,0,0,0,909,7000,1202,100,938,400,512,1000,713,1500,512,150,619,20,0,0,0,0,4001,1
3323,WHISPERING,Espírito de Porin,Espírito de Poring,1,50,0,2,1,1,7,10,0,5,1,1,1,0,6,30,10,12,1,3,21,0x83,400,1872,672,480,0,0,0,0,0,0,0,0,909,7000,1202,100,938,400,512,1000,713,1500,512,150,619,20,0,0,0,0,4001,1
3324,WHITEPORING,Poring Branco,Poring Branco,1,50,0,2,1,1,7,10,0,5,1,1,1,0,6,30,10,12,1,3,21,0x83,400,1872,672,480,0,0,0,0,0,0,0,0,909,7000,1202,100,938,400,512,1000,713,1500,512,150,619,20,0,0,0,0,4001,1
3325,SKELING,Poring Esqueleto,Poring Esqueleto,1,50,0,2,1,1,7,10,0,5,1,1,1,0,6,30,10,12,1,3,21,0x83,400,1872,672,480,0,0,0,0,0,0,0,0,909,7000,1202,100,938,400,512,1000,713,1500,512,150,619,20,0,0,0,0,4001,1
3326,DEVILRING,Poring Demoníaco,Poring Demoníaco,1,50,0,2,1,1,7,10,0,5,1,1,1,0,6,30,10,12,1,3,21,0x83,400,1872,672,480,0,0,0,0,0,0,0,0,909,7000,1202,100,938,400,512,1000,713,1500,512,150,619,20,0,0,0,0,4001,1
3327,ACIDRING,Poring Ácido,Poring Ácido,1,50,0,2,1,1,7,10,0,5,1,1,1,0,6,30,10,12,1,3,21,0x83,400,1872,672,480,0,0,0,0,0,0,0,0,909,7000,1202,100,938,400,512,1000,713,1500,512,150,619,20,0,0,0,0,4001,1
3328,EGGRING,Ovo de Poring,Ovo de Poring,1,50,0,2,1,1,7,10,0,5,1,1,1,0,6,30,10,12,1,3,21,0x83,400,1872,672,480,0,0,0,0,0,0,0,0,909,7000,1202,100,938,400,512,1000,713,1500,512,150,619,20,0,0,0,0,4001,1
3329,GOLDRING,Poring Dourado,Poring Dourado,1,50,0,2,1,1,7,10,0,5,1,1,1,0,6,30,10,12,1,3,21,0x83,400,1872,672,480,0,0,0,0,0,0,0,0,909,7000,1202,100,938,400,512,1000,713,1500,512,150,619,20,0,0,0,0,4001,1
3330,NATURING,Poring Planta,Poring Planta,1,50,0,2,1,1,7,10,0,5,1,1,1,0,6,30,10,12,1,3,21,0x83,400,1872,672,480,0,0,0,0,0,0,0,0,909,7000,1202,100,938,400,512,1000,713,1500,512,150,619,20,0,0,0,0,4001,1
3331,KING_PORING,Rei Poring,Rei Poring,1,50,0,2,1,1,7,10,0,5,1,1,1,0,6,30,10,12,1,3,21,0x83,400,1872,672,480,0,0,0,0,0,0,0,0,909,7000,1202,100,938,400,512,1000,713,1500,512,150,619,20,0,0,0,0,4001,1
// =====================================================//
//      SEASON II -  Teste de Elementos SMARTRO        //
//====================================================// 
3134,earth_practice_target,Elemento Terra,Elemento Terra,300,999999999,0,0,0,1,60,71,40,50,1,17,80,50,26,20,10,12,1,7,82,0x120,300,1288,288,384,0,0,0,0,0,0,0,0,0,0,0,0,0,0,0,0,0,0,0,0,0,0,0,0,0,0,0,0
3135,emperium_practice_target,Elemento Emperium,Elemento Emperium,300,999999999,0,0,0,1,60,71,40,50,1,17,80,50,26,20,10,12,0,8,26,0x120,300,1288,288,384,0,0,0,0,0,0,0,0,0,0,0,0,0,0,0,0,0,0,0,0,0,0,0,0,0,0,0,0
3136,fire_practice_target,Elemento Fogo,Elemento Fogo,300,999999999,0,0,0,1,60,71,40,50,1,17,80,50,26,20,10,12,1,7,83,0x120,300,1288,288,384,0,0,0,0,0,0,0,0,0,0,0,0,0,0,0,0,0,0,0,0,0,0,0,0,0,0,0,0
3137,ghost_practice_target,Elemento Fantasma,Elemento Fantasma,300,999999999,0,0,0,1,60,71,40,50,1,17,80,50,26,20,10,12,1,7,88,0x120,300,1288,288,384,0,0,0,0,0,0,0,0,0,0,0,0,0,0,0,0,0,0,0,0,0,0,0,0,0,0,0,0
3138,holy_practice_target,Elemento Sagrado,Elemento Sagrado,300,999999999,0,0,0,1,60,71,40,50,1,17,80,50,26,20,10,12,1,7,86,0x120,300,1288,288,384,0,0,0,0,0,0,0,0,0,0,0,0,0,0,0,0,0,0,0,0,0,0,0,0,0,0,0,0
3139,neutral_practice_target,Elemento Neutro,Elemento Neutro,300,999999999,0,0,0,1,60,71,40,50,1,17,80,50,26,20,10,12,1,7,80,0x120,300,1288,288,384,0,0,0,0,0,0,0,0,0,0,0,0,0,0,0,0,0,0,0,0,0,0,0,0,0,0,0,0
3140,poison_practice_target,Elemento Veneno,Elemento Veneno,300,999999999,0,0,0,1,60,71,40,50,1,17,80,50,26,20,10,12,1,7,85,0x120,300,1288,288,384,0,0,0,0,0,0,0,0,0,0,0,0,0,0,0,0,0,0,0,0,0,0,0,0,0,0,0,0
3141,shadow_practice_target,Elemento Sombrio,Elemento Sombrio,300,999999999,0,0,0,1,60,71,40,50,1,17,80,50,26,20,10,12,1,7,86,0x120,300,1288,288,384,0,0,0,0,0,0,0,0,0,0,0,0,0,0,0,0,0,0,0,0,0,0,0,0,0,0,0,0
3142,undead_practice_target,Elemento Morto-Vivo,Elemento Morto-Vivo,300,999999999,0,0,0,1,60,71,40,50,1,17,80,50,26,20,10,12,1,7,89,0x120,300,1288,288,384,0,0,0,0,0,0,0,0,0,0,0,0,0,0,0,0,0,0,0,0,0,0,0,0,0,0,0,0
3143,water_practice_target,Elemento Agua,Elemento Agua,300,999999999,0,0,0,1,60,71,40,50,1,17,80,50,26,20,10,12,1,7,81,0x120,300,1288,288,384,0,0,0,0,0,0,0,0,0,0,0,0,0,0,0,0,0,0,0,0,0,0,0,0,0,0,0,0
3144,wind_practice_target,Elemento Vento,Elemento Vento,300,999999999,0,0,0,1,60,71,40,50,1,17,80,50,26,20,10,12,1,7,84,0x120,300,1288,288,384,0,0,0,0,0,0,0,0,0,0,0,0,0,0,0,0,0,0,0,0,0,0,0,0,0,0,0,0
// ======================================//
// SEASON II -  Custom Mobs SMARTRO     //
//=====================================//
3145,ABYSSKNARTHUR,ABYSSKNARTHUR,Demônio do Rei Arthur,64,7099,0,3990,4390,1,410,760,0,45,1,85,25,99,70,46,10,12,1,6,83,0x3985,150,700,700,500,0,0,0,0,0,0,0,0,994,30,1003,150,7097,3000,690,100,757,1000,716,300,970,5,0,0,0,0,0,0
3146,BASIFIGHTER,BASIFIGHTER,BASIFIGHTER,64,7099,0,3990,4390,1,410,760,0,45,1,85,25,99,70,46,10,12,1,6,83,0x3985,150,700,700,500,0,0,0,0,0,0,0,0,994,30,1003,150,7097,3000,690,100,757,1000,716,300,970,5,0,0,0,0,0,0
3147,BASIMAGE,BASIMAGE,BASIMAGE,64,7099,0,3990,4390,1,410,760,0,45,1,85,25,99,70,46,10,12,1,6,83,0x3985,150,700,700,500,0,0,0,0,0,0,0,0,994,30,1003,150,7097,3000,690,100,757,1000,716,300,970,5,0,0,0,0,0,0
3148,BASIPALADIN,BASIPALADIN,BASIPALADIN,64,7099,0,3990,4390,1,410,760,0,45,1,85,25,99,70,46,10,12,1,6,83,0x3985,150,700,700,500,0,0,0,0,0,0,0,0,994,30,1003,150,7097,3000,690,100,757,1000,716,300,970,5,0,0,0,0,0,0
3149,EASTEREGGPINK,EASTEREGGPINK,EASTEREGGPINK,64,7099,0,3990,4390,1,410,760,0,45,1,85,25,99,70,46,10,12,1,6,83,0x3985,150,700,700,500,0,0,0,0,0,0,0,0,994,30,1003,150,7097,3000,690,100,757,1000,716,300,970,5,0,0,0,0,0,0
3150,EASTEREGGRED,EASTEREGGRED,EASTEREGGRED,64,7099,0,3990,4390,1,410,760,0,45,1,85,25,99,70,46,10,12,1,6,83,0x3985,150,700,700,500,0,0,0,0,0,0,0,0,994,30,1003,150,7097,3000,690,100,757,1000,716,300,970,5,0,0,0,0,0,0
3151,HALLOWPIANO,HALLOWPIANO,HALLOWPIANO,64,7099,0,3990,4390,1,410,760,0,45,1,85,25,99,70,46,10,12,1,6,83,0x3985,150,700,700,500,0,0,0,0,0,0,0,0,994,30,1003,150,7097,3000,690,100,757,1000,716,300,970,5,0,0,0,0,0,0
3152,HHEADLESSMULE,HHEADLESSMULE,HHEADLESSMULE,64,7099,0,3990,4390,1,410,760,0,45,1,85,25,99,70,46,10,12,1,6,83,0x3985,150,700,700,500,0,0,0,0,0,0,0,0,994,30,1003,150,7097,3000,690,100,757,1000,716,300,970,5,0,0,0,0,0,0
3153,SKELIONS,SKELIONS,SKELIONS,64,7099,0,3990,4390,1,410,760,0,45,1,85,25,99,70,46,10,12,1,6,83,0x3985,150,700,700,500,0,0,0,0,0,0,0,0,994,30,1003,150,7097,3000,690,100,757,1000,716,300,970,5,0,0,0,0,0,0
// ======================================//
// SEASON II -  CRISTAIS SMARTRO     //
//=====================================//
3154,HAZ_CRYSTAL2_BLU,HAZ_CRYSTAL2_BLU,Cristal HAZ Azul,64,7099,0,3990,4390,1,410,760,0,45,1,85,25,99,70,46,10,12,1,6,83,0x3985,150,700,700,500,0,0,0,0,0,0,0,0,994,30,1003,150,7097,3000,690,100,757,1000,716,300,970,5,0,0,0,0,0,0
3155,HAZ_CRYSTAL2_GRN,HAZ_CRYSTAL2_GRN,Cristal HAZ Verde,64,7099,0,3990,4390,1,410,760,0,45,1,85,25,99,70,46,10,12,1,6,83,0x3985,150,700,700,500,0,0,0,0,0,0,0,0,994,30,1003,150,7097,3000,690,100,757,1000,716,300,970,5,0,0,0,0,0,0
3156,HAZ_CRYSTAL2_RED,HAZ_CRYSTAL2_RED,Cristal HAZ Vermelho,64,7099,0,3990,4390,1,410,760,0,45,1,85,25,99,70,46,10,12,1,6,83,0x3985,150,700,700,500,0,0,0,0,0,0,0,0,994,30,1003,150,7097,3000,690,100,757,1000,716,300,970,5,0,0,0,0,0,0
3157,HAZ_CRYSTAL2_YLW,HAZ_CRYSTAL2_YLW,Cristal HAZ Amarelo,64,7099,0,3990,4390,1,410,760,0,45,1,85,25,99,70,46,10,12,1,6,83,0x3985,150,700,700,500,0,0,0,0,0,0,0,0,994,30,1003,150,7097,3000,690,100,757,1000,716,300,970,5,0,0,0,0,0,0
3158,CRYSTAL_BLK,CRYSTAL_BLK,Cristal Smart Negro,64,7099,0,3990,4390,1,410,760,0,45,1,85,25,99,70,46,10,12,1,6,83,0x3985,150,700,700,500,0,0,0,0,0,0,0,0,994,30,1003,150,7097,3000,690,100,757,1000,716,300,970,5,0,0,0,0,0,0
3159,CRYSTAL_BLU,CRYSTAL_BLU,Cristal Smart Azul,64,7099,0,3990,4390,1,410,760,0,45,1,85,25,99,70,46,10,12,1,6,83,0x3985,150,700,700,500,0,0,0,0,0,0,0,0,994,30,1003,150,7097,3000,690,100,757,1000,716,300,970,5,0,0,0,0,0,0
3160,CRYSTAL_GRN,CRYSTAL_GRN,Cristal Smart Verde,64,7099,0,3990,4390,1,410,760,0,45,1,85,25,99,70,46,10,12,1,6,83,0x3985,150,700,700,500,0,0,0,0,0,0,0,0,994,30,1003,150,7097,3000,690,100,757,1000,716,300,970,5,0,0,0,0,0,0
3161,CRYSTAL_ORG,CRYSTAL_ORG,Cristal Smart Laranja,64,7099,0,3990,4390,1,410,760,0,45,1,85,25,99,70,46,10,12,1,6,83,0x3985,150,700,700,500,0,0,0,0,0,0,0,0,994,30,1003,150,7097,3000,690,100,757,1000,716,300,970,5,0,0,0,0,0,0
3162,CRYSTAL_PRP,CRYSTAL_PRP,Cristal Smart Roxo,64,7099,0,3990,4390,1,410,760,0,45,1,85,25,99,70,46,10,12,1,6,83,0x3985,150,700,700,500,0,0,0,0,0,0,0,0,994,30,1003,150,7097,3000,690,100,757,1000,716,300,970,5,0,0,0,0,0,0
3163,CRYSTAL_RED,CRYSTAL_RED,Cristal Smart Vermelho,64,7099,0,3990,4390,1,410,760,0,45,1,85,25,99,70,46,10,12,1,6,83,0x3985,150,700,700,500,0,0,0,0,0,0,0,0,994,30,1003,150,7097,3000,690,100,757,1000,716,300,970,5,0,0,0,0,0,0
3164,CRYSTAL_WHT,CRYSTAL_WHT,Cristal Smart Branco,64,7099,0,3990,4390,1,410,760,0,45,1,85,25,99,70,46,10,12,1,6,83,0x3985,150,700,700,500,0,0,0,0,0,0,0,0,994,30,1003,150,7097,3000,690,100,757,1000,716,300,970,5,0,0,0,0,0,0
3165,CRYSTAL_YLW,CRYSTAL_YLW,Cristal Smart Amarelo,64,7099,0,3990,4390,1,410,760,0,45,1,85,25,99,70,46,10,12,1,6,83,0x3985,150,700,700,500,0,0,0,0,0,0,0,0,994,30,1003,150,7097,3000,690,100,757,1000,716,300,970,5,0,0,0,0,0,0
// ======================================//
// SEASON II -  BAÚS SMARTRO     //
//=====================================//
3166,HAZ_CHEST_BLK,HAZ_CHEST_BLK,Baú Negro Smart,64,7099,0,3990,4390,1,410,760,0,45,1,85,25,99,70,46,10,12,1,6,83,0x3985,150,700,700,500,0,0,0,0,0,0,0,0,994,30,1003,150,7097,3000,690,100,757,1000,716,300,970,5,0,0,0,0,0,0
3167,HAZ_CHEST_BLU,HAZ_CHEST_BLU,Baú Azul Smart,64,7099,0,3990,4390,1,410,760,0,45,1,85,25,99,70,46,10,12,1,6,83,0x3985,150,700,700,500,0,0,0,0,0,0,0,0,994,30,1003,150,7097,3000,690,100,757,1000,716,300,970,5,0,0,0,0,0,0
3168,HAZ_CHEST_CYN,HAZ_CHEST_CYN,Baú Ciano Smart,64,7099,0,3990,4390,1,410,760,0,45,1,85,25,99,70,46,10,12,1,6,83,0x3985,150,700,700,500,0,0,0,0,0,0,0,0,994,30,1003,150,7097,3000,690,100,757,1000,716,300,970,5,0,0,0,0,0,0
3169,HAZ_CHEST_GRN,HAZ_CHEST_GRN,Baú Verde Smart,64,7099,0,3990,4390,1,410,760,0,45,1,85,25,99,70,46,10,12,1,6,83,0x3985,150,700,700,500,0,0,0,0,0,0,0,0,994,30,1003,150,7097,3000,690,100,757,1000,716,300,970,5,0,0,0,0,0,0
3170,HAZ_CHEST_ORG,HAZ_CHEST_ORG,Baú Laranja Smart,64,7099,0,3990,4390,1,410,760,0,45,1,85,25,99,70,46,10,12,1,6,83,0x3985,150,700,700,500,0,0,0,0,0,0,0,0,994,30,1003,150,7097,3000,690,100,757,1000,716,300,970,5,0,0,0,0,0,0
3171,HAZ_CHEST_PNK,HAZ_CHEST_PNK,Baú Rosa Smart,64,7099,0,3990,4390,1,410,760,0,45,1,85,25,99,70,46,10,12,1,6,83,0x3985,150,700,700,500,0,0,0,0,0,0,0,0,994,30,1003,150,7097,3000,690,100,757,1000,716,300,970,5,0,0,0,0,0,0
3172,HAZ_CHEST_PRP,HAZ_CHEST_PRP,Baú Roxo Smart,64,7099,0,3990,4390,1,410,760,0,45,1,85,25,99,70,46,10,12,1,6,83,0x3985,150,700,700,500,0,0,0,0,0,0,0,0,994,30,1003,150,7097,3000,690,100,757,1000,716,300,970,5,0,0,0,0,0,0
3173,HAZ_CHEST_RED,HAZ_CHEST_RED,Baú Vermelho Smart,64,7099,0,3990,4390,1,410,760,0,45,1,85,25,99,70,46,10,12,1,6,83,0x3985,150,700,700,500,0,0,0,0,0,0,0,0,994,30,1003,150,7097,3000,690,100,757,1000,716,300,970,5,0,0,0,0,0,0
3174,HAZ_CHEST_WHT,HAZ_CHEST_WHT,Baú Branco Smart,64,7099,0,3990,4390,1,410,760,0,45,1,85,25,99,70,46,10,12,1,6,83,0x3985,150,700,700,500,0,0,0,0,0,0,0,0,994,30,1003,150,7097,3000,690,100,757,1000,716,300,970,5,0,0,0,0,0,0
3175,HAZ_CHEST_YLW,HAZ_CHEST_YLW,Baú Amarelo Smart,64,7099,0,3990,4390,1,410,760,0,45,1,85,25,99,70,46,10,12,1,6,83,0x3985,150,700,700,500,0,0,0,0,0,0,0,0,994,30,1003,150,7097,3000,690,100,757,1000,716,300,970,5,0,0,0,0,0,0
